state=
{
	id=312
	name="STATE_312"
	manpower=1
	resources={
		chromium=1 # was: 1
	}
	
	state_category = town
	history= {
 
		buildings = {
			infrastructure = 4
			arms_factory = 1
			industrial_complex = 2 
			air_base = 1
			12865 = {
				naval_base = 1
			}
			8017 = {
				naval_base = 1
			}
		}
 

	}
	provinces={
		2031 8017 12865
	}
}
