
state={
	id=450
	name="STATE_450"
	manpower = 82535
	
	state_category = enclave

	history={
		owner = ITA
		
		victory_points = {
			11954 3 
		}
		buildings = {
			infrastructure = 3
			air_base = 1
			11954 = {
				naval_base = 1
			}
		}
		add_core_of = SWE
	}

	provinces={
		1127 4120 10123 11954 
	}
}
