
state={
	id=452
	name="STATE_452"
	manpower = 52556
	
	state_category = wasteland

	history={
		owner = ENG
		buildings = {
			infrastructure = 3
		}

	add_core_of = SWE
	}

	provinces={
		7079 9989 10061 11910 11967 5078 12033 12091 7148 
	}

}
