
state={
	id=490
	name="STATE_490"
	manpower = 1
	
	state_category = pastoral

	history={
 
		buildings = {
			infrastructure = 3
			industrial_complex = 1
			air_base = 1
		}
 
	}

   provinces={
		8149 10942 
	}
}
