state={
	id=617
	name="STATE_617"

	history={

		buildings = {
			infrastructure = 3
			industrial_complex = 2

		}
		victory_points = {
			4709 3 
		}

	}

	provinces={
		1703 4682 4709 4770 7702 7792 7850 10545 10614 12526 12601 12656 
	}
	manpower=1
	buildings_max_level_factor=1.000
	state_category=rural
}
