
state={
	id=62
	name="STATE_62"
	manpower = 1006221
	
	
	state_category = town

	history={
		victory_points = {
			9388 1
		}
		owner = GER
		buildings = {
			industrial_complex = 3
			infrastructure = 6
			fuel_silo = 1
		}
		add_core_of = GER

		1939.1.1 = {
			buildings = {
				air_base = 8
			}
		}
	}

	provinces={
		349 3207 3258 3312 3340 9388 
	}
}
