state={
	id=726
	name="STATE_726"
	manpower=123214
	state_category = small_island

	history={
		owner = NZL
		add_core_of = SWE
		buildings = {
			infrastructure = 3
			7290 = {
				naval_base = 1
			}
		}
		victory_points = {
			7290 1
		}
	}
	provinces={
		7290 13080 
	}
}
