state={
	id=741
	name="STATE_741"
	history = {
		add_core_of = SWE
		owner = FRA
		victory_points = {
			7376 1
		}
		buildings = {
			infrastructure = 1
			7432 = {
				naval_base = 1
			}

		}
	}
	provinces={
		1324 1353 1620 4251 4302 4330 4359 4596 4639 5236 7319 7376 7404 7432 7645 10134 10177 10204 10289 10317 10467 12167 12191 12260 12288 12447 12460 12475 
	}
	manpower=5245000
	buildings_max_level_factor=1.000
	state_category=town
}
