state={
	id=774
	name="STATE_774"

	history={
		owner = FRA
		add_core_of = SWE
		victory_points = {
			2081 1
		}
		buildings = {
			infrastructure = 2

		}

	}

	provinces={
		1473 1883 1993 2081 3123 3181 4897 4978 7919 9152 13138 13211 
	}
	manpower=1442456
	buildings_max_level_factor=1.000
	state_category=pastoral
}
