state={
	id=775
	name="STATE_775" # BET - Borkou-Ennedi-Tibesti region
	
	state_category = wasteland
	impassable = yes

	history={
		owner = FRA
		add_core_of = SWE
		buildings = {
			infrastructure = 0
		}
	}

	provinces={
		4902 5136 10893
	}
	manpower=1
	buildings_max_level_factor=1.000
}
